module teknoark.com

go 1.14

require (
	github.com/appleboy/gin-jwt v2.5.0+incompatible
	github.com/appleboy/gin-jwt/v2 v2.6.3
	github.com/gin-gonic/gin v1.6.3
	github.com/jinzhu/gorm v1.9.14
	gopkg.in/dgrijalva/jwt-go.v3 v3.2.0 // indirect
)
